v 936.065763083587170000000000 -303.305761495711010000000000 -6562.495049349878200000000000
v 630.868224977189580000000000 5298.378824715815400000000000 -3968.356679289794600000000000
v -752.715578344121240000000000 -597.950850337767860000000000 -6565.830767731668900000000000
v -6319.044527027182100000000000 557.991803223100190000000000 -2013.898627621556700000000000
v 2477.347993780237600000000000 -2015.611303715201300000000000 -5822.062646450162900000000000
v 497.406261417287230000000000 -6531.640247422480600000000000 1185.575791604235300000000000
v -3144.103550839110500000000000 882.088702471108950000000000 -5782.386260728962000000000000
v 6601.330878004989200000000000 770.959510357421780000000000 -389.652483975836450000000000
v 201.333991377748820000000000 -418.218230768876030000000000 6619.220011944444200000000000
v -5790.013607284229700000000000 2096.731642788875000000000000 2522.178926832998100000000000
v -1560.419029202429100000000000 -1383.246149056435800000000000 -6301.500198164195400000000000
v 1691.101732281251500000000000 -6268.661598064903000000000000 1467.766256855754600000000000
v 3444.088888787967300000000000 -1842.630026700912400000000000 5373.376580262627600000000000
v -401.527402516811780000000000 -5409.090696648142500000000000 3847.795730430543700000000000
v 2953.728741797894100000000000 5912.839130701674500000000000 -796.457786356067570000000000
v -1536.946779836411700000000000 1034.568237068681100000000000 -6373.265650056802800000000000
v 6098.596804945922500000000000 -2617.757079837344500000000000 -526.683597680649770000000000
v 4740.293290151787000000000000 -2727.375241737042400000000000 3784.090235891363600000000000
v -608.187695859095470000000000 384.520794956959720000000000 6596.498364405219000000000000
v 4074.924373578612600000000000 -3216.584446103895100000000000 -4154.163225810712900000000000
v 4133.534651251464300000000000 1573.557388235098400000000000 -4959.519972545169400000000000
v -745.356214228972480000000000 987.953649298777800000000000 6519.717635768320200000000000
v 2371.080329508422900000000000 -5657.170103855399200000000000 -2579.604175495068800000000000
v 4917.443672222280800000000000 305.077181788029180000000000 4462.762639483332400000000000
v 3557.037994335578300000000000 4239.220619474369400000000000 3689.114778011629800000000000
v 1942.075175579000000000000000 6350.449311338647000000000000 -472.685915463591700000000000
v 2021.862657714809500000000000 6056.698691100587900000000000 1878.692534402291100000000000
v -1746.467763194789500000000000 -1333.599848352524500000000000 -6263.526140842212000000000000
v -900.415343583085130000000000 6416.821237303073800000000000 -1524.074516101294200000000000
v -110.822432571607040000000000 -5486.547992982468700000000000 -3757.017505035611100000000000
v -6117.453050548903800000000000 2198.232523261387100000000000 -1433.697744405366200000000000
v -4402.978404502620800000000000 2469.441142941954700000000000 4326.004712357526800000000000
v 569.677916086964270000000000 -824.571894487939400000000000 6559.751948496532300000000000
v -3201.926141672748600000000000 -510.280685765548410000000000 -5795.319828225882700000000000
v 617.920209576800060000000000 2015.218162272068900000000000 6294.035765205609100000000000
v -2358.071754084554000000000000 -4429.196248366265500000000000 -4361.002678672765800000000000
v 58.284790961226108000000000 7.228997587085162400000000 -6635.107150424547400000000000
v -2732.790970554632600000000000 -5930.543661333695100000000000 -1293.840621255669700000000000
v -4810.545747146213200000000000 4547.013407224456400000000000 710.434645260275260000000000
v -4106.324621642961600000000000 -72.582210829137594000000000 5222.434140480312600000000000
v -1131.701756224820400000000000 -4347.687717773164000000000000 4896.942864276462400000000000
v 1752.628053005859600000000000 4398.650194764703000000000000 4664.582661451429900000000000
v 220.587903317556540000000000 594.260725244947820000000000 -6605.222038888830900000000000
v -2241.826893812810800000000000 -4942.162610170429600000000000 3843.757102964296300000000000
v -1999.419639349012600000000000 5808.322125386479500000000000 2558.592585022434800000000000
v -5714.802810576551600000000000 -1531.553403264464400000000000 3042.660096874912600000000000
v -2004.013632765488400000000000 -5901.418428040382400000000000 -2333.514861542643800000000000
v -3299.376315057335000000000000 3162.409961632242800000000000 -4825.057097451485800000000000
v 2529.530850619317300000000000 -3318.579381379693100000000000 5170.409743273085000000000000
v -4072.908295258678700000000000 -5244.661244185075700000000000 477.711919194737670000000000
v 1971.869294594469500000000000 -4332.729939834871400000000000 4638.852881529980600000000000
v -3623.617925563530700000000000 5556.620963419433800000000000 -562.162763701821860000000000
v -214.352128660849080000000000 -64.576381703563484000000000 -6631.613057106267700000000000
v -616.768735123615670000000000 -588.813352023181320000000000 6580.716971680881200000000000
v 1022.919004738300900000000000 -745.463222472591270000000000 -6514.347196670583800000000000
v 1302.784450659734400000000000 -362.184558973499010000000000 -6497.067674990562400000000000
v 1840.602741511179400000000000 136.212149644078490000000000 -6375.304269569184700000000000
v 2056.772006595078900000000000 6173.219635192186600000000000 -1404.476579164848300000000000
v -890.595023840412070000000000 2492.508472505841400000000000 -6088.449261141749000000000000
v 3135.934542894592600000000000 4366.409371620525200000000000 -3914.322666356755200000000000
v -1901.484361818708100000000000 2947.171675674907000000000000 -5639.943278926735700000000000
v -2167.725309033297000000000000 5547.206086206250800000000000 -2965.636187835209100000000000
v -715.350407582964860000000000 2263.251778430311300000000000 -6199.335023468512200000000000
v -1818.202229900867700000000000 -1211.794780749281700000000000 -6267.832820052718500000000000
v -2062.866836832150500000000000 44.691981263922223000000000 -6308.657304741095700000000000
v -495.605902227979750000000000 97.047696026810272000000000 -6616.247960414973900000000000
v -6219.057808369816500000000000 1349.384766700266900000000000 -1949.784524420388800000000000
v -4692.076424433315900000000000 -2138.904350906508200000000000 -4197.092690260015800000000000
v 2504.789572107573800000000000 -3027.321008051774200000000000 -5356.564387721872700000000000
v -831.426061789393430000000000 -5741.837447785948800000000000 -3254.756398737897600000000000
v -1943.675817363702900000000000 -6352.071736419578000000000000 443.602289524417530000000000
v 6266.381675233644300000000000 603.230906893808080000000000 2159.155896512202600000000000
v 6117.104037316694300000000000 -782.655191547816120000000000 2500.231912273361100000000000
v 4319.601731111390100000000000 4994.913637207574500000000000 -843.730500751016850000000000
v -273.715142699861360000000000 289.963433198377400000000000 6623.453691822086500000000000
v -362.985246613431120000000000 -51.870701036426013000000000 6625.294285864992200000000000
v 926.561174187618580000000000 -868.542195798785090000000000 6513.523567577533900000000000
v -5008.572320021537100000000000 2399.571258653150800000000000 3659.346113691813100000000000
v -5431.757920665218100000000000 -1181.181570318293600000000000 3651.813255060310400000000000
v 3439.681837657134100000000000 -5564.400252243564900000000000 1233.122422258046800000000000
v 3167.620970212085000000000000 -5610.954049684121900000000000 1670.141702467152500000000000
v 2195.990971094149700000000000 -4545.358774744631800000000000 4326.199379674022600000000000
v 3498.840186844080600000000000 -5630.191004069214600000000000 617.492584038732730000000000
v 754.974437427524890000000000 -2609.585519453152800000000000 6057.850625898381600000000000
v 3125.682392636515500000000000 -3096.676692774325100000000000 4979.796653722618400000000000
v 2889.216109954156800000000000 -212.141476013443450000000000 5974.251628720460800000000000
v -3230.489130340220100000000000 -5106.560166549886200000000000 2785.585833242155300000000000
v -303.310836417071360000000000 -3794.782447583184000000000000 5443.594339573457500000000000
v 3097.641804186914200000000000 5891.194175832774800000000000 -151.957397816423050000000000
v -443.928762540390610000000000 160.201745133857630000000000 -6618.672595356483700000000000
v 5336.128134655704300000000000 -2437.074076422559300000000000 3137.651562855064200000000000
v 5063.650978089253800000000000 -3984.232765190125500000000000 -1670.723261214896000000000000
v -283.335098800455280000000000 2089.818983747034500000000000 6293.665473412131200000000000
v -641.825402866237370000000000 2922.328268101190600000000000 5927.567674089566000000000000
v 4562.476085088921500000000000 1966.914625846475700000000000 4416.829449425772500000000000
v -97.423599674279387000000000 6656.089098794921500000000000 -108.202971838241040000000000
v -1530.842081809295900000000000 6005.153618133946100000000000 2424.835193194307500000000000
v 1256.603963025574300000000000 3797.330285825248700000000000 5304.375949454718500000000000
v -2272.192529553598000000000000 -6257.816199038416000000000000 40.823195883307797000000000
v -2748.981901866406600000000000 -4419.746665742118200000000000 4137.435070096345000000000000
f 1.000000000000000000000000 37.000000000000000000000000 43.000000000000000000000000
f 1.000000000000000000000000 43.000000000000000000000000 57.000000000000000000000000
f 1.000000000000000000000000 55.000000000000000000000000 37.000000000000000000000000
f 1.000000000000000000000000 56.000000000000000000000000 55.000000000000000000000000
f 1.000000000000000000000000 57.000000000000000000000000 56.000000000000000000000000
f 2.000000000000000000000000 29.000000000000000000000000 58.000000000000000000000000
f 2.000000000000000000000000 58.000000000000000000000000 60.000000000000000000000000
f 2.000000000000000000000000 59.000000000000000000000000 61.000000000000000000000000
f 2.000000000000000000000000 60.000000000000000000000000 63.000000000000000000000000
f 2.000000000000000000000000 61.000000000000000000000000 62.000000000000000000000000
f 2.000000000000000000000000 62.000000000000000000000000 29.000000000000000000000000
f 2.000000000000000000000000 63.000000000000000000000000 59.000000000000000000000000
f 3.000000000000000000000000 11.000000000000000000000000 64.000000000000000000000000
f 3.000000000000000000000000 64.000000000000000000000000 65.000000000000000000000000
f 3.000000000000000000000000 65.000000000000000000000000 66.000000000000000000000000
f 3.000000000000000000000000 55.000000000000000000000000 11.000000000000000000000000
f 3.000000000000000000000000 53.000000000000000000000000 55.000000000000000000000000
f 3.000000000000000000000000 66.000000000000000000000000 53.000000000000000000000000
f 4.000000000000000000000000 7.000000000000000000000000 68.000000000000000000000000
f 4.000000000000000000000000 10.000000000000000000000000 31.000000000000000000000000
f 4.000000000000000000000000 31.000000000000000000000000 67.000000000000000000000000
f 4.000000000000000000000000 67.000000000000000000000000 7.000000000000000000000000
f 4.000000000000000000000000 46.000000000000000000000000 10.000000000000000000000000
f 4.000000000000000000000000 50.000000000000000000000000 46.000000000000000000000000
f 4.000000000000000000000000 68.000000000000000000000000 50.000000000000000000000000
f 5.000000000000000000000000 20.000000000000000000000000 69.000000000000000000000000
f 5.000000000000000000000000 21.000000000000000000000000 20.000000000000000000000000
f 5.000000000000000000000000 69.000000000000000000000000 55.000000000000000000000000
f 5.000000000000000000000000 55.000000000000000000000000 56.000000000000000000000000
f 5.000000000000000000000000 56.000000000000000000000000 57.000000000000000000000000
f 5.000000000000000000000000 57.000000000000000000000000 21.000000000000000000000000
f 6.000000000000000000000000 12.000000000000000000000000 14.000000000000000000000000
f 6.000000000000000000000000 14.000000000000000000000000 71.000000000000000000000000
f 6.000000000000000000000000 23.000000000000000000000000 12.000000000000000000000000
f 6.000000000000000000000000 47.000000000000000000000000 70.000000000000000000000000
f 6.000000000000000000000000 70.000000000000000000000000 23.000000000000000000000000
f 6.000000000000000000000000 71.000000000000000000000000 47.000000000000000000000000
f 7.000000000000000000000000 16.000000000000000000000000 65.000000000000000000000000
f 7.000000000000000000000000 67.000000000000000000000000 48.000000000000000000000000
f 7.000000000000000000000000 34.000000000000000000000000 68.000000000000000000000000
f 7.000000000000000000000000 48.000000000000000000000000 61.000000000000000000000000
f 7.000000000000000000000000 65.000000000000000000000000 34.000000000000000000000000
f 7.000000000000000000000000 61.000000000000000000000000 16.000000000000000000000000
f 8.000000000000000000000000 17.000000000000000000000000 20.000000000000000000000000
f 8.000000000000000000000000 20.000000000000000000000000 21.000000000000000000000000
f 8.000000000000000000000000 21.000000000000000000000000 74.000000000000000000000000
f 8.000000000000000000000000 72.000000000000000000000000 73.000000000000000000000000
f 8.000000000000000000000000 73.000000000000000000000000 17.000000000000000000000000
f 8.000000000000000000000000 74.000000000000000000000000 72.000000000000000000000000
f 9.000000000000000000000000 33.000000000000000000000000 77.000000000000000000000000
f 9.000000000000000000000000 35.000000000000000000000000 75.000000000000000000000000
f 9.000000000000000000000000 75.000000000000000000000000 76.000000000000000000000000
f 9.000000000000000000000000 54.000000000000000000000000 33.000000000000000000000000
f 9.000000000000000000000000 76.000000000000000000000000 54.000000000000000000000000
f 9.000000000000000000000000 77.000000000000000000000000 35.000000000000000000000000
f 10.000000000000000000000000 39.000000000000000000000000 31.000000000000000000000000
f 10.000000000000000000000000 78.000000000000000000000000 39.000000000000000000000000
f 10.000000000000000000000000 46.000000000000000000000000 79.000000000000000000000000
f 10.000000000000000000000000 79.000000000000000000000000 78.000000000000000000000000
f 11.000000000000000000000000 28.000000000000000000000000 64.000000000000000000000000
f 11.000000000000000000000000 30.000000000000000000000000 36.000000000000000000000000
f 11.000000000000000000000000 36.000000000000000000000000 28.000000000000000000000000
f 11.000000000000000000000000 69.000000000000000000000000 30.000000000000000000000000
f 11.000000000000000000000000 55.000000000000000000000000 69.000000000000000000000000
f 12.000000000000000000000000 23.000000000000000000000000 83.000000000000000000000000
f 12.000000000000000000000000 80.000000000000000000000000 81.000000000000000000000000
f 12.000000000000000000000000 81.000000000000000000000000 82.000000000000000000000000
f 12.000000000000000000000000 82.000000000000000000000000 14.000000000000000000000000
f 12.000000000000000000000000 83.000000000000000000000000 80.000000000000000000000000
f 13.000000000000000000000000 18.000000000000000000000000 24.000000000000000000000000
f 13.000000000000000000000000 24.000000000000000000000000 86.000000000000000000000000
f 13.000000000000000000000000 49.000000000000000000000000 85.000000000000000000000000
f 13.000000000000000000000000 84.000000000000000000000000 49.000000000000000000000000
f 13.000000000000000000000000 77.000000000000000000000000 84.000000000000000000000000
f 13.000000000000000000000000 85.000000000000000000000000 18.000000000000000000000000
f 13.000000000000000000000000 86.000000000000000000000000 77.000000000000000000000000
f 14.000000000000000000000000 41.000000000000000000000000 44.000000000000000000000000
f 14.000000000000000000000000 44.000000000000000000000000 87.000000000000000000000000
f 14.000000000000000000000000 82.000000000000000000000000 51.000000000000000000000000
f 14.000000000000000000000000 51.000000000000000000000000 88.000000000000000000000000
f 14.000000000000000000000000 87.000000000000000000000000 71.000000000000000000000000
f 14.000000000000000000000000 88.000000000000000000000000 41.000000000000000000000000
f 15.000000000000000000000000 26.000000000000000000000000 89.000000000000000000000000
f 15.000000000000000000000000 58.000000000000000000000000 26.000000000000000000000000
f 15.000000000000000000000000 60.000000000000000000000000 58.000000000000000000000000
f 15.000000000000000000000000 89.000000000000000000000000 74.000000000000000000000000
f 15.000000000000000000000000 74.000000000000000000000000 60.000000000000000000000000
f 16.000000000000000000000000 59.000000000000000000000000 63.000000000000000000000000
f 16.000000000000000000000000 43.000000000000000000000000 90.000000000000000000000000
f 16.000000000000000000000000 61.000000000000000000000000 59.000000000000000000000000
f 16.000000000000000000000000 90.000000000000000000000000 66.000000000000000000000000
f 16.000000000000000000000000 63.000000000000000000000000 43.000000000000000000000000
f 16.000000000000000000000000 66.000000000000000000000000 65.000000000000000000000000
f 17.000000000000000000000000 91.000000000000000000000000 80.000000000000000000000000
f 17.000000000000000000000000 80.000000000000000000000000 83.000000000000000000000000
f 17.000000000000000000000000 83.000000000000000000000000 92.000000000000000000000000
f 17.000000000000000000000000 73.000000000000000000000000 91.000000000000000000000000
f 17.000000000000000000000000 92.000000000000000000000000 20.000000000000000000000000
f 18.000000000000000000000000 91.000000000000000000000000 24.000000000000000000000000
f 18.000000000000000000000000 80.000000000000000000000000 91.000000000000000000000000
f 18.000000000000000000000000 81.000000000000000000000000 80.000000000000000000000000
f 18.000000000000000000000000 82.000000000000000000000000 81.000000000000000000000000
f 18.000000000000000000000000 85.000000000000000000000000 82.000000000000000000000000
f 19.000000000000000000000000 22.000000000000000000000000 40.000000000000000000000000
f 19.000000000000000000000000 40.000000000000000000000000 54.000000000000000000000000
f 19.000000000000000000000000 75.000000000000000000000000 22.000000000000000000000000
f 19.000000000000000000000000 54.000000000000000000000000 76.000000000000000000000000
f 19.000000000000000000000000 76.000000000000000000000000 75.000000000000000000000000
f 20.000000000000000000000000 23.000000000000000000000000 69.000000000000000000000000
f 20.000000000000000000000000 92.000000000000000000000000 23.000000000000000000000000
f 21.000000000000000000000000 60.000000000000000000000000 74.000000000000000000000000
f 21.000000000000000000000000 57.000000000000000000000000 63.000000000000000000000000
f 21.000000000000000000000000 63.000000000000000000000000 60.000000000000000000000000
f 22.000000000000000000000000 32.000000000000000000000000 40.000000000000000000000000
f 22.000000000000000000000000 35.000000000000000000000000 93.000000000000000000000000
f 22.000000000000000000000000 75.000000000000000000000000 35.000000000000000000000000
f 22.000000000000000000000000 93.000000000000000000000000 94.000000000000000000000000
f 22.000000000000000000000000 94.000000000000000000000000 32.000000000000000000000000
f 23.000000000000000000000000 30.000000000000000000000000 69.000000000000000000000000
f 23.000000000000000000000000 70.000000000000000000000000 30.000000000000000000000000
f 23.000000000000000000000000 92.000000000000000000000000 83.000000000000000000000000
f 24.000000000000000000000000 72.000000000000000000000000 95.000000000000000000000000
f 24.000000000000000000000000 91.000000000000000000000000 73.000000000000000000000000
f 24.000000000000000000000000 73.000000000000000000000000 72.000000000000000000000000
f 24.000000000000000000000000 95.000000000000000000000000 86.000000000000000000000000
f 25.000000000000000000000000 27.000000000000000000000000 42.000000000000000000000000
f 25.000000000000000000000000 72.000000000000000000000000 74.000000000000000000000000
f 25.000000000000000000000000 42.000000000000000000000000 95.000000000000000000000000
f 25.000000000000000000000000 89.000000000000000000000000 27.000000000000000000000000
f 25.000000000000000000000000 74.000000000000000000000000 89.000000000000000000000000
f 25.000000000000000000000000 95.000000000000000000000000 72.000000000000000000000000
f 26.000000000000000000000000 27.000000000000000000000000 89.000000000000000000000000
f 26.000000000000000000000000 58.000000000000000000000000 96.000000000000000000000000
f 26.000000000000000000000000 96.000000000000000000000000 27.000000000000000000000000
f 27.000000000000000000000000 97.000000000000000000000000 42.000000000000000000000000
f 27.000000000000000000000000 96.000000000000000000000000 97.000000000000000000000000
f 28.000000000000000000000000 34.000000000000000000000000 64.000000000000000000000000
f 28.000000000000000000000000 36.000000000000000000000000 68.000000000000000000000000
f 28.000000000000000000000000 68.000000000000000000000000 34.000000000000000000000000
f 29.000000000000000000000000 52.000000000000000000000000 96.000000000000000000000000
f 29.000000000000000000000000 62.000000000000000000000000 52.000000000000000000000000
f 29.000000000000000000000000 96.000000000000000000000000 58.000000000000000000000000
f 30.000000000000000000000000 70.000000000000000000000000 36.000000000000000000000000
f 31.000000000000000000000000 39.000000000000000000000000 52.000000000000000000000000
f 31.000000000000000000000000 48.000000000000000000000000 67.000000000000000000000000
f 31.000000000000000000000000 52.000000000000000000000000 48.000000000000000000000000
f 32.000000000000000000000000 78.000000000000000000000000 40.000000000000000000000000
f 32.000000000000000000000000 45.000000000000000000000000 78.000000000000000000000000
f 32.000000000000000000000000 94.000000000000000000000000 45.000000000000000000000000
f 33.000000000000000000000000 54.000000000000000000000000 84.000000000000000000000000
f 33.000000000000000000000000 84.000000000000000000000000 77.000000000000000000000000
f 34.000000000000000000000000 65.000000000000000000000000 64.000000000000000000000000
f 35.000000000000000000000000 77.000000000000000000000000 86.000000000000000000000000
f 35.000000000000000000000000 98.000000000000000000000000 94.000000000000000000000000
f 35.000000000000000000000000 94.000000000000000000000000 93.000000000000000000000000
f 35.000000000000000000000000 95.000000000000000000000000 98.000000000000000000000000
f 35.000000000000000000000000 86.000000000000000000000000 95.000000000000000000000000
f 36.000000000000000000000000 38.000000000000000000000000 68.000000000000000000000000
f 36.000000000000000000000000 47.000000000000000000000000 38.000000000000000000000000
f 36.000000000000000000000000 70.000000000000000000000000 47.000000000000000000000000
f 37.000000000000000000000000 55.000000000000000000000000 53.000000000000000000000000
f 37.000000000000000000000000 53.000000000000000000000000 90.000000000000000000000000
f 37.000000000000000000000000 90.000000000000000000000000 43.000000000000000000000000
f 38.000000000000000000000000 47.000000000000000000000000 99.000000000000000000000000
f 38.000000000000000000000000 50.000000000000000000000000 68.000000000000000000000000
f 38.000000000000000000000000 99.000000000000000000000000 50.000000000000000000000000
f 39.000000000000000000000000 78.000000000000000000000000 45.000000000000000000000000
f 39.000000000000000000000000 45.000000000000000000000000 52.000000000000000000000000
f 40.000000000000000000000000 41.000000000000000000000000 54.000000000000000000000000
f 40.000000000000000000000000 78.000000000000000000000000 79.000000000000000000000000
f 40.000000000000000000000000 79.000000000000000000000000 100.000000000000000000000000
f 40.000000000000000000000000 100.000000000000000000000000 41.000000000000000000000000
f 41.000000000000000000000000 88.000000000000000000000000 54.000000000000000000000000
f 41.000000000000000000000000 100.000000000000000000000000 44.000000000000000000000000
f 42.000000000000000000000000 97.000000000000000000000000 98.000000000000000000000000
f 42.000000000000000000000000 98.000000000000000000000000 95.000000000000000000000000
f 43.000000000000000000000000 63.000000000000000000000000 57.000000000000000000000000
f 44.000000000000000000000000 100.000000000000000000000000 87.000000000000000000000000
f 45.000000000000000000000000 97.000000000000000000000000 52.000000000000000000000000
f 45.000000000000000000000000 98.000000000000000000000000 97.000000000000000000000000
f 45.000000000000000000000000 94.000000000000000000000000 98.000000000000000000000000
f 46.000000000000000000000000 50.000000000000000000000000 87.000000000000000000000000
f 46.000000000000000000000000 87.000000000000000000000000 100.000000000000000000000000
f 46.000000000000000000000000 100.000000000000000000000000 79.000000000000000000000000
f 47.000000000000000000000000 71.000000000000000000000000 99.000000000000000000000000
f 48.000000000000000000000000 52.000000000000000000000000 62.000000000000000000000000
f 48.000000000000000000000000 62.000000000000000000000000 61.000000000000000000000000
f 49.000000000000000000000000 82.000000000000000000000000 85.000000000000000000000000
f 49.000000000000000000000000 51.000000000000000000000000 82.000000000000000000000000
f 49.000000000000000000000000 84.000000000000000000000000 51.000000000000000000000000
f 50.000000000000000000000000 71.000000000000000000000000 87.000000000000000000000000
f 50.000000000000000000000000 99.000000000000000000000000 71.000000000000000000000000
f 51.000000000000000000000000 84.000000000000000000000000 88.000000000000000000000000
f 52.000000000000000000000000 97.000000000000000000000000 96.000000000000000000000000
f 53.000000000000000000000000 66.000000000000000000000000 90.000000000000000000000000
f 54.000000000000000000000000 88.000000000000000000000000 84.000000000000000000000000
